Access datasets of Brazilian Samba Schools and color palettes in R • carnaval
…
Install carnaval from GitHub as follows:

if (!require(devtools)) install.packages("devtools")
devtools::install_github("IcaroBernardes/carnaval")

Examples

# Loads the package
library(carnaval)

# Prints a table that shows the scores of Portela and
# Estácio de Sá on the parades of 1968 and 1970 on all criterions
get_scores(years = c(1968, 1970), schools = c("portela", "Estácio de Sá"))
#> # A tibble: 52 × 6
#>    school         year score criteria                 judge_name         judge…¹
#>    <chr>         <dbl> <dbl> <chr>                    <chr>              <glue> 
#>  1 Estácio de Sá  1968     6 ALEGORIAS E ADEREÇOS     Napoleão Muniz Fr… judge1 
#>  2 Portela        1968    10 ALEGORIAS E ADEREÇOS     Napoleão Muniz Fr… judge1 
#>  3 Estácio de Sá  1968     7 BATERIA                  João de Barros  B… judge1 
#>  4 Portela        1968     9 BATERIA                  João de Barros  B… judge1 
#>  5 Estácio de Sá  1968     7 COMISSÃO DE FRENTE       Danúbio Menezes G… judge1 
#>  6 Portela        1968     9 COMISSÃO DE FRENTE       Danúbio Menezes G… judge1 
#>  7 Estácio de Sá  1968     4 CONJUNTO                 Ítalo de Oliveira  judge1 
#>  8 Portela        1968     4 CONJUNTO                 Ítalo de Oliveira  judge1 
#>  9 Estácio de Sá  1968     4 DESFILE NÃO INTERROMPIDO Maurício Shermann  judge1 
#> 10 Estácio de Sá  1968     2 DESFILE NÃO INTERROMPIDO Sandra Dicken      judge2 
#> # … with 42 more rows, and abbreviated variable name ¹​judge_number
…
