…
``` r
if(!require(devtools)) install.packages("devtools")
devtools::install_github("IcaroBernardes/carnaval")
```

## Examples

``` r
library(carnaval)

# Prints a table that shows the scores of Portela and
# Estácio de Sá on the parades of 1968 and 1970 on all criterions
get_scores(years = c(1968, 1970), schools = c("portela", "Estácio de Sá"))
#> # A tibble: 52 × 6
#>    school        judge_number score criteria                 judge_name     year
#>    <chr>         <glue>       <dbl> <chr>                    <chr>         <dbl>
#>  1 Estácio de Sá judge1           6 ALEGORIAS E ADEREÇOS     Napoleão Mun…  1968
#>  2 Portela       judge1          10 ALEGORIAS E ADEREÇOS     Napoleão Mun…  1968
#>  3 Estácio de Sá judge1           7 BATERIA                  João de Barr…  1968
#>  4 Portela       judge1           9 BATERIA                  João de Barr…  1968
#>  5 Estácio de Sá judge1           7 COMISSÃO DE FRENTE       Danúbio Mene…  1968
#>  6 Portela       judge1           9 COMISSÃO DE FRENTE       Danúbio Mene…  1968
#>  7 Estácio de Sá judge1           4 CONJUNTO                 Ítalo de Oli…  1968
#>  8 Portela       judge1           4 CONJUNTO                 Ítalo de Oli…  1968
#>  9 Estácio de Sá judge1           4 DESFILE NÃO INTERROMPIDO Maurício She…  1968
#> 10 Estácio de Sá judge2           2 DESFILE NÃO INTERROMPIDO Sandra Dicken  1968
#> # … with 42 more rows
```
